Info: Starting: Create block symbol file (.bsf)
Info: qsys-generate C:\Users\Y520\Documents\Quartus_workspace\nios2\NIOS2.qsys --block-symbol-file --output-directory=C:\Users\Y520\Documents\Quartus_workspace\nios2\NIOS2 --family="MAX 10" --part=10M08DAF256C8GES
Progress: Loading nios2/NIOS2.qsys
Progress: Reading input file
Progress: Adding CLK [clock_source 18.0]
Progress: Parameterizing module CLK
Progress: Adding CPU [altera_nios2_gen2 18.0]
Progress: Parameterizing module CPU
Progress: Adding CPU_ID [altera_avalon_sysid_qsys 18.0]
Progress: Parameterizing module CPU_ID
Progress: Adding JTAG [altera_avalon_jtag_uart 18.0]
Progress: Parameterizing module JTAG
Progress: Adding LED [altera_avalon_pio 18.0]
Progress: Parameterizing module LED
Progress: Adding PLL [altpll 18.0]
Progress: Parameterizing module PLL
Progress: Adding RAM [altera_avalon_onchip_memory2 18.0]
Progress: Parameterizing module RAM
Progress: Adding SWITCH [altera_avalon_pio 18.0]
Progress: Parameterizing module SWITCH
Progress: Adding TIMER [altera_avalon_timer 18.0]
Progress: Parameterizing module TIMER
Progress: Building connections
Progress: Parameterizing connections
Progress: Validating
Progress: Done reading input file
Info: NIOS2.CPU_ID: System ID is not assigned automatically. Edit the System ID parameter to provide a unique ID
Info: NIOS2.CPU_ID: Time stamp will be automatically updated when this component is generated.
Info: NIOS2.JTAG: JTAG UART IP input clock need to be at least double (2x) the operating frequency of JTAG TCK on board
Info: NIOS2.SWITCH: PIO inputs are not hardwired in test bench. Undefined values will be read from PIO inputs during simulation.
Warning: NIOS2.PLL: PLL.areset_conduit must be exported, or connected to a matching conduit.
Warning: NIOS2.PLL: PLL.locked_conduit must be exported, or connected to a matching conduit.
Info: qsys-generate succeeded.
Info: Finished: Create block symbol file (.bsf)
Info: 
Info: Starting: Create HDL design files for synthesis
Info: qsys-generate C:\Users\Y520\Documents\Quartus_workspace\nios2\NIOS2.qsys --synthesis=VERILOG --output-directory=C:\Users\Y520\Documents\Quartus_workspace\nios2\NIOS2\synthesis --family="MAX 10" --part=10M08DAF256C8GES
Progress: Loading nios2/NIOS2.qsys
Progress: Reading input file
Progress: Adding CLK [clock_source 18.0]
Progress: Parameterizing module CLK
Progress: Adding CPU [altera_nios2_gen2 18.0]
Progress: Parameterizing module CPU
Progress: Adding CPU_ID [altera_avalon_sysid_qsys 18.0]
Progress: Parameterizing module CPU_ID
Progress: Adding JTAG [altera_avalon_jtag_uart 18.0]
Progress: Parameterizing module JTAG
Progress: Adding LED [altera_avalon_pio 18.0]
Progress: Parameterizing module LED
Progress: Adding PLL [altpll 18.0]
Progress: Parameterizing module PLL
Progress: Adding RAM [altera_avalon_onchip_memory2 18.0]
Progress: Parameterizing module RAM
Progress: Adding SWITCH [altera_avalon_pio 18.0]
Progress: Parameterizing module SWITCH
Progress: Adding TIMER [altera_avalon_timer 18.0]
Progress: Parameterizing module TIMER
Progress: Building connections
Progress: Parameterizing connections
Progress: Validating
Progress: Done reading input file
Info: NIOS2.CPU_ID: System ID is not assigned automatically. Edit the System ID parameter to provide a unique ID
Info: NIOS2.CPU_ID: Time stamp will be automatically updated when this component is generated.
Info: NIOS2.JTAG: JTAG UART IP input clock need to be at least double (2x) the operating frequency of JTAG TCK on board
Info: NIOS2.SWITCH: PIO inputs are not hardwired in test bench. Undefined values will be read from PIO inputs during simulation.
Warning: NIOS2.PLL: PLL.areset_conduit must be exported, or connected to a matching conduit.
Warning: NIOS2.PLL: PLL.locked_conduit must be exported, or connected to a matching conduit.
Info: NIOS2: Generating NIOS2 "NIOS2" for QUARTUS_SYNTH
Info: Inserting clock-crossing logic between cmd_demux.src3 and cmd_mux_003.sink0
Info: Inserting clock-crossing logic between rsp_demux_003.src0 and rsp_mux.sink3
Info: CPU: "NIOS2" instantiated altera_nios2_gen2 "CPU"
Info: CPU_ID: "NIOS2" instantiated altera_avalon_sysid_qsys "CPU_ID"
Info: JTAG: Starting RTL generation for module 'NIOS2_JTAG'
Info: JTAG:   Generation command is [exec C:/intelfpga_lite/18.0/quartus/bin64/perl/bin/perl.exe -I C:/intelfpga_lite/18.0/quartus/bin64/perl/lib -I C:/intelfpga_lite/18.0/quartus/sopc_builder/bin/europa -I C:/intelfpga_lite/18.0/quartus/sopc_builder/bin/perl_lib -I C:/intelfpga_lite/18.0/quartus/sopc_builder/bin -I C:/intelfpga_lite/18.0/quartus/../ip/altera/sopc_builder_ip/common -I C:/intelfpga_lite/18.0/quartus/../ip/altera/sopc_builder_ip/altera_avalon_jtag_uart -- C:/intelfpga_lite/18.0/quartus/../ip/altera/sopc_builder_ip/altera_avalon_jtag_uart/generate_rtl.pl --name=NIOS2_JTAG --dir=C:/Users/Y520/AppData/Local/Temp/alt7803_6788402313737669794.dir/0033_JTAG_gen/ --quartus_dir=C:/intelfpga_lite/18.0/quartus --verilog --config=C:/Users/Y520/AppData/Local/Temp/alt7803_6788402313737669794.dir/0033_JTAG_gen//NIOS2_JTAG_component_configuration.pl  --do_build_sim=0  ]
Info: JTAG: Done RTL generation for module 'NIOS2_JTAG'
Info: JTAG: "NIOS2" instantiated altera_avalon_jtag_uart "JTAG"
Info: LED: Starting RTL generation for module 'NIOS2_LED'
Info: LED:   Generation command is [exec C:/intelfpga_lite/18.0/quartus/bin64/perl/bin/perl.exe -I C:/intelfpga_lite/18.0/quartus/bin64/perl/lib -I C:/intelfpga_lite/18.0/quartus/sopc_builder/bin/europa -I C:/intelfpga_lite/18.0/quartus/sopc_builder/bin/perl_lib -I C:/intelfpga_lite/18.0/quartus/sopc_builder/bin -I C:/intelfpga_lite/18.0/quartus/../ip/altera/sopc_builder_ip/common -I C:/intelfpga_lite/18.0/quartus/../ip/altera/sopc_builder_ip/altera_avalon_pio -- C:/intelfpga_lite/18.0/quartus/../ip/altera/sopc_builder_ip/altera_avalon_pio/generate_rtl.pl --name=NIOS2_LED --dir=C:/Users/Y520/AppData/Local/Temp/alt7803_6788402313737669794.dir/0034_LED_gen/ --quartus_dir=C:/intelfpga_lite/18.0/quartus --verilog --config=C:/Users/Y520/AppData/Local/Temp/alt7803_6788402313737669794.dir/0034_LED_gen//NIOS2_LED_component_configuration.pl  --do_build_sim=0  ]
Info: LED: Done RTL generation for module 'NIOS2_LED'
Info: LED: "NIOS2" instantiated altera_avalon_pio "LED"
Info: PLL: "NIOS2" instantiated altpll "PLL"
Info: RAM: Starting RTL generation for module 'NIOS2_RAM'
Info: RAM:   Generation command is [exec C:/intelfpga_lite/18.0/quartus/bin64/perl/bin/perl.exe -I C:/intelfpga_lite/18.0/quartus/bin64/perl/lib -I C:/intelfpga_lite/18.0/quartus/sopc_builder/bin/europa -I C:/intelfpga_lite/18.0/quartus/sopc_builder/bin/perl_lib -I C:/intelfpga_lite/18.0/quartus/sopc_builder/bin -I C:/intelfpga_lite/18.0/quartus/../ip/altera/sopc_builder_ip/common -I C:/intelfpga_lite/18.0/quartus/../ip/altera/sopc_builder_ip/altera_avalon_onchip_memory2 -- C:/intelfpga_lite/18.0/quartus/../ip/altera/sopc_builder_ip/altera_avalon_onchip_memory2/generate_rtl.pl --name=NIOS2_RAM --dir=C:/Users/Y520/AppData/Local/Temp/alt7803_6788402313737669794.dir/0037_RAM_gen/ --quartus_dir=C:/intelfpga_lite/18.0/quartus --verilog --config=C:/Users/Y520/AppData/Local/Temp/alt7803_6788402313737669794.dir/0037_RAM_gen//NIOS2_RAM_component_configuration.pl  --do_build_sim=0  ]
Info: RAM: Done RTL generation for module 'NIOS2_RAM'
Info: RAM: "NIOS2" instantiated altera_avalon_onchip_memory2 "RAM"
Info: SWITCH: Starting RTL generation for module 'NIOS2_SWITCH'
Info: SWITCH:   Generation command is [exec C:/intelfpga_lite/18.0/quartus/bin64/perl/bin/perl.exe -I C:/intelfpga_lite/18.0/quartus/bin64/perl/lib -I C:/intelfpga_lite/18.0/quartus/sopc_builder/bin/europa -I C:/intelfpga_lite/18.0/quartus/sopc_builder/bin/perl_lib -I C:/intelfpga_lite/18.0/quartus/sopc_builder/bin -I C:/intelfpga_lite/18.0/quartus/../ip/altera/sopc_builder_ip/common -I C:/intelfpga_lite/18.0/quartus/../ip/altera/sopc_builder_ip/altera_avalon_pio -- C:/intelfpga_lite/18.0/quartus/../ip/altera/sopc_builder_ip/altera_avalon_pio/generate_rtl.pl --name=NIOS2_SWITCH --dir=C:/Users/Y520/AppData/Local/Temp/alt7803_6788402313737669794.dir/0038_SWITCH_gen/ --quartus_dir=C:/intelfpga_lite/18.0/quartus --verilog --config=C:/Users/Y520/AppData/Local/Temp/alt7803_6788402313737669794.dir/0038_SWITCH_gen//NIOS2_SWITCH_component_configuration.pl  --do_build_sim=0  ]
Info: SWITCH: Done RTL generation for module 'NIOS2_SWITCH'
Info: SWITCH: "NIOS2" instantiated altera_avalon_pio "SWITCH"
Info: TIMER: Starting RTL generation for module 'NIOS2_TIMER'
Info: TIMER:   Generation command is [exec C:/intelFPGA_lite/18.0/quartus/bin64//perl/bin/perl.exe -I C:/intelFPGA_lite/18.0/quartus/bin64//perl/lib -I C:/intelfpga_lite/18.0/quartus/sopc_builder/bin/europa -I C:/intelfpga_lite/18.0/quartus/sopc_builder/bin/perl_lib -I C:/intelfpga_lite/18.0/quartus/sopc_builder/bin -I C:/intelfpga_lite/18.0/quartus/../ip/altera/sopc_builder_ip/common -I C:/intelfpga_lite/18.0/quartus/../ip/altera/sopc_builder_ip/altera_avalon_timer -- C:/intelfpga_lite/18.0/quartus/../ip/altera/sopc_builder_ip/altera_avalon_timer/generate_rtl.pl --name=NIOS2_TIMER --dir=C:/Users/Y520/AppData/Local/Temp/alt7803_6788402313737669794.dir/0039_TIMER_gen/ --quartus_dir=C:/intelfpga_lite/18.0/quartus --verilog --config=C:/Users/Y520/AppData/Local/Temp/alt7803_6788402313737669794.dir/0039_TIMER_gen//NIOS2_TIMER_component_configuration.pl  --do_build_sim=0  ]
Info: TIMER: Done RTL generation for module 'NIOS2_TIMER'
Info: TIMER: "NIOS2" instantiated altera_avalon_timer "TIMER"
Info: avalon_st_adapter: Inserting error_adapter: error_adapter_0
Info: avalon_st_adapter_001: Inserting error_adapter: error_adapter_0
Info: avalon_st_adapter_002: Inserting error_adapter: error_adapter_0
Info: avalon_st_adapter_003: Inserting error_adapter: error_adapter_0
Info: avalon_st_adapter_004: Inserting error_adapter: error_adapter_0
Info: avalon_st_adapter_005: Inserting error_adapter: error_adapter_0
Info: avalon_st_adapter_006: Inserting error_adapter: error_adapter_0
Info: avalon_st_adapter_007: Inserting error_adapter: error_adapter_0
Info: mm_interconnect_0: "NIOS2" instantiated altera_mm_interconnect "mm_interconnect_0"
Info: irq_mapper: "NIOS2" instantiated altera_irq_mapper "irq_mapper"
Info: rst_controller: "NIOS2" instantiated altera_reset_controller "rst_controller"
Info: cpu: Starting RTL generation for module 'NIOS2_CPU_cpu'
Info: cpu:   Generation command is [exec C:/intelFPGA_lite/18.0/quartus/bin64//eperlcmd.exe -I C:/intelFPGA_lite/18.0/quartus/bin64//perl/lib -I C:/intelfpga_lite/18.0/quartus/sopc_builder/bin/europa -I C:/intelfpga_lite/18.0/quartus/sopc_builder/bin/perl_lib -I C:/intelfpga_lite/18.0/quartus/sopc_builder/bin -I C:/intelfpga_lite/18.0/quartus/../ip/altera/nios2_ip/altera_nios2_gen2/cpu_lib -I C:/intelfpga_lite/18.0/quartus/../ip/altera/nios2_ip/altera_nios2_gen2/nios_lib -I C:/intelfpga_lite/18.0/quartus/../ip/altera/nios2_ip/altera_nios2_gen2 -I C:/intelfpga_lite/18.0/quartus/../ip/altera/nios2_ip/altera_nios2_gen2 -- C:/intelfpga_lite/18.0/quartus/../ip/altera/nios2_ip/altera_nios2_gen2/generate_rtl.epl --name=NIOS2_CPU_cpu --dir=C:/Users/Y520/AppData/Local/Temp/alt7803_6788402313737669794.dir/0042_cpu_gen/ --quartus_bindir=C:/intelFPGA_lite/18.0/quartus/bin64/ --verilog --config=C:/Users/Y520/AppData/Local/Temp/alt7803_6788402313737669794.dir/0042_cpu_gen//NIOS2_CPU_cpu_processor_configuration.pl  --do_build_sim=0  ]
Info: cpu: # 2018.09.29 12:18:20 (*) Starting Nios II generation
Info: cpu: # 2018.09.29 12:18:20 (*)   Checking for plaintext license.
Info: cpu: # 2018.09.29 12:18:20 (*)   Couldn't query license setup in Quartus directory C:/intelFPGA_lite/18.0/quartus/bin64/
Info: cpu: # 2018.09.29 12:18:20 (*)   Defaulting to contents of LM_LICENSE_FILE environment variable
Info: cpu: # 2018.09.29 12:18:20 (*)   LM_LICENSE_FILE environment variable is empty
Info: cpu: # 2018.09.29 12:18:20 (*)   Plaintext license not found.
Info: cpu: # 2018.09.29 12:18:20 (*)   No license required to generate encrypted Nios II/e.
Info: cpu: # 2018.09.29 12:18:20 (*)   Elaborating CPU configuration settings
Info: cpu: # 2018.09.29 12:18:20 (*)   Creating all objects for CPU
Info: cpu: # 2018.09.29 12:18:22 (*)   Generating RTL from CPU objects
Info: cpu: # 2018.09.29 12:18:22 (*)   Creating plain-text RTL
Info: cpu: # 2018.09.29 12:18:22 (*) Done Nios II generation
Info: cpu: Done RTL generation for module 'NIOS2_CPU_cpu'
Info: cpu: "CPU" instantiated altera_nios2_gen2_unit "cpu"
Info: CPU_data_master_translator: "mm_interconnect_0" instantiated altera_merlin_master_translator "CPU_data_master_translator"
Info: JTAG_avalon_jtag_slave_translator: "mm_interconnect_0" instantiated altera_merlin_slave_translator "JTAG_avalon_jtag_slave_translator"
Info: CPU_data_master_agent: "mm_interconnect_0" instantiated altera_merlin_master_agent "CPU_data_master_agent"
Info: JTAG_avalon_jtag_slave_agent: "mm_interconnect_0" instantiated altera_merlin_slave_agent "JTAG_avalon_jtag_slave_agent"
Info: JTAG_avalon_jtag_slave_agent_rsp_fifo: "mm_interconnect_0" instantiated altera_avalon_sc_fifo "JTAG_avalon_jtag_slave_agent_rsp_fifo"
Info: router: "mm_interconnect_0" instantiated altera_merlin_router "router"
Info: router_001: "mm_interconnect_0" instantiated altera_merlin_router "router_001"
Info: router_002: "mm_interconnect_0" instantiated altera_merlin_router "router_002"
Info: router_004: "mm_interconnect_0" instantiated altera_merlin_router "router_004"
Info: cmd_demux: "mm_interconnect_0" instantiated altera_merlin_demultiplexer "cmd_demux"
Info: cmd_demux_001: "mm_interconnect_0" instantiated altera_merlin_demultiplexer "cmd_demux_001"
Info: cmd_mux: "mm_interconnect_0" instantiated altera_merlin_multiplexer "cmd_mux"
Info: cmd_mux_002: "mm_interconnect_0" instantiated altera_merlin_multiplexer "cmd_mux_002"
Info: Reusing file C:/Users/Y520/Documents/Quartus_workspace/nios2/NIOS2/synthesis/submodules/altera_merlin_arbitrator.sv
Info: rsp_demux: "mm_interconnect_0" instantiated altera_merlin_demultiplexer "rsp_demux"
Info: rsp_demux_003: "mm_interconnect_0" instantiated altera_merlin_demultiplexer "rsp_demux_003"
Info: rsp_mux: "mm_interconnect_0" instantiated altera_merlin_multiplexer "rsp_mux"
Info: Reusing file C:/Users/Y520/Documents/Quartus_workspace/nios2/NIOS2/synthesis/submodules/altera_merlin_arbitrator.sv
Info: rsp_mux_001: "mm_interconnect_0" instantiated altera_merlin_multiplexer "rsp_mux_001"
Info: Reusing file C:/Users/Y520/Documents/Quartus_workspace/nios2/NIOS2/synthesis/submodules/altera_merlin_arbitrator.sv
Info: crosser: "mm_interconnect_0" instantiated altera_avalon_st_handshake_clock_crosser "crosser"
Info: avalon_st_adapter: "mm_interconnect_0" instantiated altera_avalon_st_adapter "avalon_st_adapter"
Info: error_adapter_0: "avalon_st_adapter" instantiated error_adapter "error_adapter_0"
Info: NIOS2: Done "NIOS2" with 33 modules, 49 files
Info: qsys-generate succeeded.
Info: Finished: Create HDL design files for synthesis
